{
  "project_info": {
    "project_number": "1034200469106",
    "firebase_url": "https://biddyut-rider.firebaseio.com",
    "project_id": "biddyut-rider",
    "storage_bucket": "biddyut-rider.appspot.com"
  },
  "client": [
    {
      "client_info": {
        "mobilesdk_app_id": "1:1034200469106:android:46d9ed80f8fc9013",
        "android_client_info": {
          "package_name": "com.sslwireless.biddyut.rider"
        }
      },
      "oauth_client": [
        {
          "client_id": "1034200469106-e7tg4dtqfeivih9dqsidi8tjlo7v4tar.apps.googleusercontent.com",
          "client_type": 3
        }
      ],
      "api_key": [
        {
          "current_key": "AIzaSyDdsSIIxiKCglYjFasEsBnY-tYxcfNZHNc"
        }
      ],
      "services": {
        "analytics_service": {
          "status": 1
        },
        "appinvite_service": {
          "status": 1,
          "other_platform_oauth_client": []
        },
        "ads_service": {
          "status": 2
        }
      }
    }
  ],
  "configuration_version": "1"
}